11 Joining Data – COMP/STAT112 Notebook
…
Part a

How many total student enrollments are there in each department? Order from high to low.

courses %>% 
  group_by(dept) %>% 
  summarize(total = sum(enroll)) %>% 
  arrange(desc(total))

# A tibble: 40 × 2
   dept  total
   <chr> <int>
 1 d      3046
 2 j      2312
 3 O      2178
 4 M      2129
 5 m      2105
 6 D      2003
 7 W      1960
 8 q      1859
 9 k      1824
10 F      1587
# ℹ 30 more rows
…
